%YAML 1.1
%TAG !u! tag:unity3d.com,2011:
--- !u!1 &7842054732777641387
GameObject:
  m_ObjectHideFlags: 0
  m_CorrespondingSourceObject: {fileID: 0}
  m_PrefabInstance: {fileID: 0}
  m_PrefabAsset: {fileID: 0}
  serializedVersion: 6
  m_Component:
  - component: {fileID: 894388535669270793}
  m_Layer: 0
  m_Name: Pillar
  m_TagString: Untagged
  m_Icon: {fileID: 0}
  m_NavMeshLayer: 0
  m_StaticEditorFlags: 0
  m_IsActive: 1
--- !u!4 &894388535669270793
Transform:
  m_ObjectHideFlags: 0
  m_CorrespondingSourceObject: {fileID: 0}
  m_PrefabInstance: {fileID: 0}
  m_PrefabAsset: {fileID: 0}
  m_GameObject: {fileID: 7842054732777641387}
  m_LocalRotation: {x: -0, y: -0, z: -0, w: 1}
  m_LocalPosition: {x: 15, y: 0, z: 50}
  m_LocalScale: {x: 1, y: 1, z: 1}
  m_Children:
  - {fileID: 3858869060841689132}
  - {fileID: 3737052138812794551}
  m_Father: {fileID: 0}
  m_RootOrder: 0
  m_LocalEulerAnglesHint: {x: 0, y: 0, z: 0}
--- !u!1001 &3858869060841294502
PrefabInstance:
  m_ObjectHideFlags: 0
  serializedVersion: 2
  m_Modification:
    m_TransformParent: {fileID: 894388535669270793}
    m_Modifications:
    - target: {fileID: 100010, guid: 63860f886baa24186b1b85fe46745014, type: 3}
      propertyPath: m_Name
      value: pillar_LP
      objectReference: {fileID: 0}
    - target: {fileID: 400010, guid: 63860f886baa24186b1b85fe46745014, type: 3}
      propertyPath: m_RootOrder
      value: 0
      objectReference: {fileID: 0}
    - target: {fileID: 400010, guid: 63860f886baa24186b1b85fe46745014, type: 3}
      propertyPath: m_LocalPosition.x
      value: 0
      objectReference: {fileID: 0}
    - target: {fileID: 400010, guid: 63860f886baa24186b1b85fe46745014, type: 3}
      propertyPath: m_LocalPosition.y
      value: 0
      objectReference: {fileID: 0}
    - target: {fileID: 400010, guid: 63860f886baa24186b1b85fe46745014, type: 3}
      propertyPath: m_LocalPosition.z
      value: 0
      objectReference: {fileID: 0}
    - target: {fileID: 400010, guid: 63860f886baa24186b1b85fe46745014, type: 3}
      propertyPath: m_LocalRotation.w
      value: 1
      objectReference: {fileID: 0}
    - target: {fileID: 400010, guid: 63860f886baa24186b1b85fe46745014, type: 3}
      propertyPath: m_LocalRotation.x
      value: -0
      objectReference: {fileID: 0}
    - target: {fileID: 400010, guid: 63860f886baa24186b1b85fe46745014, type: 3}
      propertyPath: m_LocalRotation.y
      value: -0
      objectReference: {fileID: 0}
    - target: {fileID: 400010, guid: 63860f886baa24186b1b85fe46745014, type: 3}
      propertyPath: m_LocalRotation.z
      value: -0
      objectReference: {fileID: 0}
    - target: {fileID: 400010, guid: 63860f886baa24186b1b85fe46745014, type: 3}
      propertyPath: m_LocalEulerAnglesHint.x
      value: 0
      objectReference: {fileID: 0}
    - target: {fileID: 400010, guid: 63860f886baa24186b1b85fe46745014, type: 3}
      propertyPath: m_LocalEulerAnglesHint.y
      value: 0
      objectReference: {fileID: 0}
    - target: {fileID: 400010, guid: 63860f886baa24186b1b85fe46745014, type: 3}
      propertyPath: m_LocalEulerAnglesHint.z
      value: 0
      objectReference: {fileID: 0}
    - target: {fileID: 2300000, guid: 63860f886baa24186b1b85fe46745014, type: 3}
      propertyPath: m_Materials.Array.data[0]
      value: 
      objectReference: {fileID: 2100000, guid: 0a457b6f56662445abff9f2343dfa3d2, type: 2}
    - target: {fileID: 2300002, guid: 63860f886baa24186b1b85fe46745014, type: 3}
      propertyPath: m_Materials.Array.data[0]
      value: 
      objectReference: {fileID: 2100000, guid: 0a457b6f56662445abff9f2343dfa3d2, type: 2}
    - target: {fileID: 2300004, guid: 63860f886baa24186b1b85fe46745014, type: 3}
      propertyPath: m_Materials.Array.data[0]
      value: 
      objectReference: {fileID: 2100000, guid: 0a457b6f56662445abff9f2343dfa3d2, type: 2}
    - target: {fileID: 2300006, guid: 63860f886baa24186b1b85fe46745014, type: 3}
      propertyPath: m_Materials.Array.data[0]
      value: 
      objectReference: {fileID: 2100000, guid: 0a457b6f56662445abff9f2343dfa3d2, type: 2}
    - target: {fileID: 2300008, guid: 63860f886baa24186b1b85fe46745014, type: 3}
      propertyPath: m_Materials.Array.data[0]
      value: 
      objectReference: {fileID: 2100000, guid: 0a457b6f56662445abff9f2343dfa3d2, type: 2}
    m_RemovedComponents: []
  m_SourcePrefab: {fileID: 100100000, guid: 63860f886baa24186b1b85fe46745014, type: 3}
--- !u!4 &3858869060841689132 stripped
Transform:
  m_CorrespondingSourceObject: {fileID: 400010, guid: 63860f886baa24186b1b85fe46745014,
    type: 3}
  m_PrefabInstance: {fileID: 3858869060841294502}
  m_PrefabAsset: {fileID: 0}
--- !u!1001 &9029773007038913111
PrefabInstance:
  m_ObjectHideFlags: 0
  serializedVersion: 2
  m_Modification:
    m_TransformParent: {fileID: 894388535669270793}
    m_Modifications:
    - target: {fileID: 98149444944921465, guid: 5b22669d88c0cf542ba6d2412a599bfc,
        type: 3}
      propertyPath: m_Name
      value: Node (75)
      objectReference: {fileID: 0}
    - target: {fileID: 5660074391170186464, guid: 5b22669d88c0cf542ba6d2412a599bfc,
        type: 3}
      propertyPath: m_RootOrder
      value: 1
      objectReference: {fileID: 0}
    - target: {fileID: 5660074391170186464, guid: 5b22669d88c0cf542ba6d2412a599bfc,
        type: 3}
      propertyPath: m_LocalScale.x
      value: 4
      objectReference: {fileID: 0}
    - target: {fileID: 5660074391170186464, guid: 5b22669d88c0cf542ba6d2412a599bfc,
        type: 3}
      propertyPath: m_LocalScale.y
      value: 1
      objectReference: {fileID: 0}
    - target: {fileID: 5660074391170186464, guid: 5b22669d88c0cf542ba6d2412a599bfc,
        type: 3}
      propertyPath: m_LocalScale.z
      value: 4
      objectReference: {fileID: 0}
    - target: {fileID: 5660074391170186464, guid: 5b22669d88c0cf542ba6d2412a599bfc,
        type: 3}
      propertyPath: m_LocalPosition.x
      value: 0
      objectReference: {fileID: 0}
    - target: {fileID: 5660074391170186464, guid: 5b22669d88c0cf542ba6d2412a599bfc,
        type: 3}
      propertyPath: m_LocalPosition.y
      value: 7.71
      objectReference: {fileID: 0}
    - target: {fileID: 5660074391170186464, guid: 5b22669d88c0cf542ba6d2412a599bfc,
        type: 3}
      propertyPath: m_LocalPosition.z
      value: 0
      objectReference: {fileID: 0}
    - target: {fileID: 5660074391170186464, guid: 5b22669d88c0cf542ba6d2412a599bfc,
        type: 3}
      propertyPath: m_LocalRotation.w
      value: 1
      objectReference: {fileID: 0}
    - target: {fileID: 5660074391170186464, guid: 5b22669d88c0cf542ba6d2412a599bfc,
        type: 3}
      propertyPath: m_LocalRotation.x
      value: -0
      objectReference: {fileID: 0}
    - target: {fileID: 5660074391170186464, guid: 5b22669d88c0cf542ba6d2412a599bfc,
        type: 3}
      propertyPath: m_LocalRotation.y
      value: -0
      objectReference: {fileID: 0}
    - target: {fileID: 5660074391170186464, guid: 5b22669d88c0cf542ba6d2412a599bfc,
        type: 3}
      propertyPath: m_LocalRotation.z
      value: -0
      objectReference: {fileID: 0}
    - target: {fileID: 5660074391170186464, guid: 5b22669d88c0cf542ba6d2412a599bfc,
        type: 3}
      propertyPath: m_LocalEulerAnglesHint.x
      value: 0
      objectReference: {fileID: 0}
    - target: {fileID: 5660074391170186464, guid: 5b22669d88c0cf542ba6d2412a599bfc,
        type: 3}
      propertyPath: m_LocalEulerAnglesHint.y
      value: 0
      objectReference: {fileID: 0}
    - target: {fileID: 5660074391170186464, guid: 5b22669d88c0cf542ba6d2412a599bfc,
        type: 3}
      propertyPath: m_LocalEulerAnglesHint.z
      value: 0
      objectReference: {fileID: 0}
    m_RemovedComponents: []
  m_SourcePrefab: {fileID: 100100000, guid: 5b22669d88c0cf542ba6d2412a599bfc, type: 3}
--- !u!4 &3737052138812794551 stripped
Transform:
  m_CorrespondingSourceObject: {fileID: 5660074391170186464, guid: 5b22669d88c0cf542ba6d2412a599bfc,
    type: 3}
  m_PrefabInstance: {fileID: 9029773007038913111}
  m_PrefabAsset: {fileID: 0}
